{
  "warnings": [
    {
      "file": "/Users/billmartensson/Dropbox/pia6/xcode/pia6test/pia6test/AppDelegate.swift",
      "line": 12,
      "symbol": "AppDelegate",
      "symbol_kind": "source.lang.swift.decl.class",
      "warning": "undocumented"
    },
    {
      "file": "/Users/billmartensson/Dropbox/pia6/xcode/pia6test/pia6test/AppDelegate.swift",
      "line": 14,
      "symbol": "AppDelegate.window",
      "symbol_kind": "source.lang.swift.decl.var.instance",
      "warning": "undocumented"
    },
    {
      "file": "/Users/billmartensson/Dropbox/pia6/xcode/pia6test/pia6test/AppDelegate.swift",
      "line": 17,
      "symbol": "AppDelegate.application(_:didFinishLaunchingWithOptions:)",
      "symbol_kind": "source.lang.swift.decl.function.method.instance",
      "warning": "undocumented"
    },
    {
      "file": "/Users/billmartensson/Dropbox/pia6/xcode/pia6test/pia6test/AppDelegate.swift",
      "line": 23,
      "symbol": "AppDelegate.applicationWillResignActive(_:)",
      "symbol_kind": "source.lang.swift.decl.function.method.instance",
      "warning": "undocumented"
    },
    {
      "file": "/Users/billmartensson/Dropbox/pia6/xcode/pia6test/pia6test/AppDelegate.swift",
      "line": 28,
      "symbol": "AppDelegate.applicationDidEnterBackground(_:)",
      "symbol_kind": "source.lang.swift.decl.function.method.instance",
      "warning": "undocumented"
    },
    {
      "file": "/Users/billmartensson/Dropbox/pia6/xcode/pia6test/pia6test/AppDelegate.swift",
      "line": 33,
      "symbol": "AppDelegate.applicationWillEnterForeground(_:)",
      "symbol_kind": "source.lang.swift.decl.function.method.instance",
      "warning": "undocumented"
    },
    {
      "file": "/Users/billmartensson/Dropbox/pia6/xcode/pia6test/pia6test/AppDelegate.swift",
      "line": 37,
      "symbol": "AppDelegate.applicationDidBecomeActive(_:)",
      "symbol_kind": "source.lang.swift.decl.function.method.instance",
      "warning": "undocumented"
    },
    {
      "file": "/Users/billmartensson/Dropbox/pia6/xcode/pia6test/pia6test/AppDelegate.swift",
      "line": 41,
      "symbol": "AppDelegate.applicationWillTerminate(_:)",
      "symbol_kind": "source.lang.swift.decl.function.method.instance",
      "warning": "undocumented"
    },
    {
      "file": "/Users/billmartensson/Dropbox/pia6/xcode/pia6test/pia6test/ViewController.swift",
      "line": 11,
      "symbol": "ViewController",
      "symbol_kind": "source.lang.swift.decl.class",
      "warning": "undocumented"
    },
    {
      "file": "/Users/billmartensson/Dropbox/pia6/xcode/pia6test/pia6test/ViewController.swift",
      "line": 13,
      "symbol": "ViewController.viewDidLoad()",
      "symbol_kind": "source.lang.swift.decl.function.method.instance",
      "warning": "undocumented"
    },
    {
      "file": "/Users/billmartensson/Dropbox/pia6/xcode/pia6test/pia6test/ViewController.swift",
      "line": 23,
      "symbol": "ViewController.didReceiveMemoryWarning()",
      "symbol_kind": "source.lang.swift.decl.function.method.instance",
      "warning": "undocumented"
    },
    {
      "file": "/Users/billmartensson/Dropbox/pia6/xcode/pia6test/pia6test/person.swift",
      "line": 11,
      "symbol": "person",
      "symbol_kind": "source.lang.swift.decl.class",
      "warning": "undocumented"
    },
    {
      "file": "/Users/billmartensson/Dropbox/pia6/xcode/pia6test/pia6test/person.swift",
      "line": 17,
      "symbol": "person.lastname",
      "symbol_kind": "source.lang.swift.decl.var.instance",
      "warning": "undocumented"
    }
  ],
  "source_directory": "/Users/billmartensson/Dropbox/pia6/xcode/pia6test"
}